	void Key0();
	void Key1();
	void Key2();
	void Key3();
	void Key4();
	void Key5();
	void Key6();
	void Key7();
	void Key8();
	void Key9();
	void KeyA();
	void KeyB();
	void KeyC();
	void KeyD();
	void KeyE();
	void KeyF();
	void KeyG();
	void KeyH();
	void KeyI();
	void KeyJ();
	void KeyK();
	void KeyL();
	void KeyM();
	void KeyN();
	void KeyO();
	void KeyP();
	void KeyQ();
	void KeyR();
	void KeyS();
	void KeyT();
	void KeyU();
	void KeyV();
	void KeyW();
	void KeyX();
	void KeyY();
	void KeyZ();

